﻿{
  "x-generator": "NSwag v13.0.6.0 (NJsonSchema v10.0.23.0 (Newtonsoft.Json v11.0.0.0))",
  "openapi": "3.0.0",
  "info": {
    "title": "ContactForm API",
    "version": "1.0.0"
  },
  "paths": {
    "/api/Contacts/GetAll": {
      "get": {
        "tags": [
          "Contacts"
        ],
        "operationId": "Contacts_GetAll",
        "responses": {
          "200": {
            "description": "",
            "content": {
              "application/json": {
                "schema": {
                  "$ref": "#/components/schemas/ContactsListViewModel"
                }
              }
            }
          }
        }
      }
    },
    "/api/Contacts/Create": {
      "post": {
        "tags": [
          "Contacts"
        ],
        "operationId": "Contacts_Create",
        "requestBody": {
          "x-name": "command",
          "content": {
            "application/json": {
              "schema": {
                "$ref": "#/components/schemas/CreateContractCommand"
              }
            }
          },
          "required": true,
          "x-position": 1
        },
        "responses": {
          "204": {
            "description": ""
          },
          "default": {
            "description": "",
            "content": {
              "application/json": {
                "schema": {
                  "$ref": "#/components/schemas/ProblemDetails"
                }
              }
            }
          }
        }
      }
    },
    "/api/Contacts/Delete/{id}": {
      "delete": {
        "tags": [
          "Contacts"
        ],
        "operationId": "Contacts_Delete",
        "parameters": [
          {
            "name": "id",
            "in": "path",
            "required": true,
            "schema": {
              "type": "string",
              "nullable": true
            },
            "x-position": 1
          }
        ],
        "responses": {
          "204": {
            "description": ""
          },
          "404": {
            "description": "",
            "content": {
              "application/json": {
                "schema": {
                  "$ref": "#/components/schemas/ProblemDetails"
                }
              }
            }
          }
        }
      }
    }
  },
  "components": {
    "schemas": {
      "ContactsListViewModel": {
        "type": "object",
        "additionalProperties": false,
        "properties": {
          "contacts": {
            "type": "array",
            "nullable": true,
            "items": {
              "$ref": "#/components/schemas/ContactLookupModel"
            }
          }
        }
      },
      "ContactLookupModel": {
        "type": "object",
        "additionalProperties": false,
        "properties": {
          "id": {
            "type": "string",
            "format": "guid"
          },
          "email": {
            "type": "string",
            "nullable": true
          },
          "comment": {
            "type": "string",
            "nullable": true
          }
        }
      },
      "ProblemDetails": {
        "type": "object",
        "additionalProperties": {
          "nullable": true
        },
        "properties": {
          "type": {
            "type": "string",
            "nullable": true
          },
          "title": {
            "type": "string",
            "nullable": true
          },
          "status": {
            "type": "integer",
            "format": "int32",
            "nullable": true
          },
          "detail": {
            "type": "string",
            "nullable": true
          },
          "instance": {
            "type": "string",
            "nullable": true
          }
        }
      },
      "CreateContractCommand": {
        "type": "object",
        "additionalProperties": false,
        "properties": {
          "email": {
            "type": "string",
            "nullable": true
          },
          "comment": {
            "type": "string",
            "nullable": true
          },
          "address": {
            "nullable": true,
            "oneOf": [
              {
                "$ref": "#/components/schemas/AddressType"
              }
            ]
          },
          "tags": {
            "type": "array",
            "nullable": true,
            "items": {
              "type": "string"
            }
          },
          "sendNews": {
            "type": "boolean"
          },
          "gender": {
            "type": "integer",
            "nullable": true
          },
          "accept": {
            "type": "boolean"
          }
        }
      },
      "AddressType": {
        "type": "object",
        "additionalProperties": false,
        "properties": {
          "country": {
            "type": "string",
            "nullable": true
          },
          "city": {
            "type": "string",
            "nullable": true
          }
        }
      }
    }
  }
}